username,email,id,status,role,subscription_plan,first_name,last_name,description,user_pass,gender,country,phone,is_employee
eliza,bitbuckset@wpengine.com,,Active,employee,,Elizabeth,Cuad,"Lorem ipsum dolor sit amet, consectetur adipiscing elit. Mauris molestie dapibus mauris, et vulputate velit faucibus a. Phasellus congue dignissim orci et porttitor. Donec scelerisque scelerisque augue a euismod. Morbi velit quam, volutpat eu augue non, convallis consequat leo. Aliquam ut auctor lectus.",,Female,USA,15612454654,Yes
mary,kienpcdd81089@gmail.com,,Active,employee,,Mary,Trial,"Lorem ipsum dolor sit amet, consectetur adipiscing elit. Mauris molestie dapibus mauris, et vulputate velit faucibus a. Phasellus congue dignissim orci et porttitor. Donec scelerisque scelerisque augue a euismod. Morbi velit quam, volutpat eu augue non, convallis consequat leo. Aliquam ut auctor lectus.",,Female,USA,13145461646,Yes
testusername,testemdail@gmail.com,,Active,employee,,testname,testlastname,"Lorem ipsum dolor sit amet, consectetur adipiscing elit. Mauris molestie dapibus mauris, et vulputate velit faucibus a. Phasellus congue dignissim orci et porttitor. Donec scelerisque scelerisque augue a euismod. Morbi velit quam, volutpat eu augue non, convallis consequat leo. Aliquam ut auctor lectus.",,Male,Venezuela,123123123132,Yes
javier,javier@gmail.com,,Active,employee,,Javier,Segovia,"Lorem ipsum dolor sit amet, consectetur adipiscing elit. Mauris molestie dapibus mauris, et vulputate velit faucibus a. Phasellus congue dignissim orci et porttitor. Donec scelerisque scelerisque augue a euismod. Morbi velit quam, volutpat eu augue non, convallis consequat leo. Aliquam ut auctor lectus.",,Male,Venezuela,058 45759429,Yes
andre,andre@gmail.com,,Active,employee,,Andre,Jo,"Lorem ipsum dolor sit amet, consectetur adipiscing elit. Mauris molestie dapibus mauris, et vulputate velit faucibus a. Phasellus congue dignissim orci et porttitor. Donec scelerisque scelerisque augue a euismod. Morbi velit quam, volutpat eu augue non, convallis consequat leo. Aliquam ut auctor lectus.",,Male,Venezuela,412 12312312,Yes
alexander,alexander@gmail.com,,Active,employee,,Alexander,Segovia,"Lorem ipsum dolor sit amet, consectetur adipiscing elit. Mauris molestie dapibus mauris, et vulputate velit faucibus a. Phasellus congue dignissim orci et porttitor. Donec scelerisque scelerisque augue a euismod. Morbi velit quam, volutpat eu augue non, convallis consequat leo. Aliquam ut auctor lectus.",,Male,USA,412 5234234,Yes