id,username,email,status,role,subscription_plan,joined,first_name,last_name,display_name,biographical_info,user_pass,gender,country,avatar,text_lp3ow
2,wpengine,bitbucket@wpengine.com,Active,subscriber,,2018-10-10 5:10:21,,,wpengine,,$P$BcB9MGfDTQRvtZp70ofWUOoEV4l9b4/,Female,USA,,156124
3,customifysites,kienpc81089@gmail.com,Active,subscriber,,2018-10-10 5:10:22,,,customifysites,,$P$B3kCKBTpcGW32sRMAwjAnU89FXWhkr/,Female,USA,,
4,testusername,testemail@gmail.com,Active,subscriber,,2018-10-10 7:44:03,testname,testlastname,testname testlastname,Testing biography text,$P$BAbl8r.6evfY.J1nbCfmHoir0X8zsK1,Male,Venezuela,,12341234
5,jxsegovia,javier@gmail.com,Active,subscriber,,2018-10-10 8:06:08,Javier,Segovia,jxsegovia,,$P$BnB94r0SRx3CxGPj5P9DP3.7G2dLdr1,Male,Venezuela,,95195123
6,alexandersegovia,alexander@gmail.com,Active,subscriber,,2018-10-10 8:06:09,Alexander,Segovia,alexandersegovia,,$P$B.BOJYY014EqDp0XrSf1ofnaWc0s6L.,Male,Venezuela,,412 12312312