id,username,email,status,role,subscription_plan,joined,first_name,last_name,biographical_info,user_pass,gender,country,avatar,text_lp3ow
2,wpengine,bitbuckset@wpengine.com,Active,employee,,2018-10-10 5:10:21,,,biography/experience text wall,$P$BcB9MGfDTQRvtZp70ofWUOoEV4l9b4/,Female,USA,,15612454654
3,customifysites,kienpcdd81089@gmail.com,Active,employee,,2018-10-10 5:10:22,,,Testing biography textTesting biography textTesting biography textTesting biography text,$P$B3kCKBTpcGW32sRMAwjAnU89FXWhkr/,Female,USA,,13145461646
4,testusername,testemdail@gmail.com,Active,employee,,2018-10-10 7:44:03,testname,testlastname,Testing biography textTesting biography textTesting biography textTesting biography text,$P$BAbl8r.6evfY.J1nbCfmHoir0X8zsK1,Male,Venezuela,,123123123132
5,javier,javier@gmail.com,Active,employee,,2018-10-10 8:06:08,Javier,Segovia,Testing biography textTesting biography textTesting biography textTesting biography text,$P$BnB94r0SRx3CxGPj5P9DP3.7G2dLdr1,Male,Venezuela,,058 45759429
6,alexander,alexander@gmail.com,Active,employee,,2018-10-10 8:06:09,Alexander,Segovia,Testing biography textTesting biography textTesting biography textTesting biography text,$P$B.BOJYY014EqDp0XrSf1ofnaWc0s6L.,Male,Venezuela,,412 12312312